^C:\USERS\RIAD\DOCUMENTS\VISUAL STUDIO 2013\PROJECTS\TEXTSTATISTICS\TEXTSTATISTICS\MAIN.CPP
C:\USERS\RIAD\DOCUMENTS\VISUAL STUDIO 2013\PROJECTS\TEXTSTATISTICS\TEXTSTATISTICS\DEBUG\VC120.PDB
C:\USERS\RIAD\DOCUMENTS\VISUAL STUDIO 2013\PROJECTS\TEXTSTATISTICS\TEXTSTATISTICS\DEBUG\VC120.IDB
C:\USERS\RIAD\DOCUMENTS\VISUAL STUDIO 2013\PROJECTS\TEXTSTATISTICS\TEXTSTATISTICS\DEBUG\MAIN.OBJ
^C:\USERS\RIAD\DOCUMENTS\VISUAL STUDIO 2013\PROJECTS\TEXTSTATISTICS\TEXTSTATISTICS\MAIN.CPP|C:\USERS\RIAD\DOCUMENTS\VISUAL STUDIO 2013\PROJECTS\TEXTSTATISTICS\TEXTSTATISTICS\TEXTSTAT.CPP
C:\USERS\RIAD\DOCUMENTS\VISUAL STUDIO 2013\PROJECTS\TEXTSTATISTICS\TEXTSTATISTICS\DEBUG\VC120.PDB
C:\USERS\RIAD\DOCUMENTS\VISUAL STUDIO 2013\PROJECTS\TEXTSTATISTICS\TEXTSTATISTICS\DEBUG\VC120.IDB
C:\USERS\RIAD\DOCUMENTS\VISUAL STUDIO 2013\PROJECTS\TEXTSTATISTICS\TEXTSTATISTICS\DEBUG\TEXTSTAT.OBJ
C:\USERS\RIAD\DOCUMENTS\VISUAL STUDIO 2013\PROJECTS\TEXTSTATISTICS\TEXTSTATISTICS\DEBUG\MAIN.OBJ
^C:\USERS\RIAD\DOCUMENTS\VISUAL STUDIO 2013\PROJECTS\TEXTSTATISTICS\TEXTSTATISTICS\TEXTSTAT.CPP
C:\USERS\RIAD\DOCUMENTS\VISUAL STUDIO 2013\PROJECTS\TEXTSTATISTICS\TEXTSTATISTICS\DEBUG\VC120.PDB
C:\USERS\RIAD\DOCUMENTS\VISUAL STUDIO 2013\PROJECTS\TEXTSTATISTICS\TEXTSTATISTICS\DEBUG\VC120.IDB
^C:\USERS\RIAD\DOCUMENTS\VISUAL STUDIO 2013\PROJECTS\TEXTSTAT_GIT_REPO\TEXTSTATISTICS\MAIN.CPP|C:\USERS\RIAD\DOCUMENTS\VISUAL STUDIO 2013\PROJECTS\TEXTSTAT_GIT_REPO\TEXTSTATISTICS\TEXTSTAT.CPP
C:\USERS\RIAD\DOCUMENTS\VISUAL STUDIO 2013\PROJECTS\TEXTSTAT_GIT_REPO\TEXTSTATISTICS\DEBUG\VC120.PDB
C:\USERS\RIAD\DOCUMENTS\VISUAL STUDIO 2013\PROJECTS\TEXTSTAT_GIT_REPO\TEXTSTATISTICS\DEBUG\VC120.IDB
C:\USERS\RIAD\DOCUMENTS\VISUAL STUDIO 2013\PROJECTS\TEXTSTAT_GIT_REPO\TEXTSTATISTICS\DEBUG\MAIN.OBJ
C:\USERS\RIAD\DOCUMENTS\VISUAL STUDIO 2013\PROJECTS\TEXTSTAT_GIT_REPO\TEXTSTATISTICS\DEBUG\TEXTSTAT.OBJ
^C:\USERS\RIAD\DOCUMENTS\VISUAL STUDIO 2013\PROJECTS\TEXTSTAT_GIT_REPO\TEXTSTATISTICS\MAIN.CPP
C:\USERS\RIAD\DOCUMENTS\VISUAL STUDIO 2013\PROJECTS\TEXTSTAT_GIT_REPO\TEXTSTATISTICS\DEBUG\VC120.PDB
^C:\USERS\RIAD\DOCUMENTS\VISUAL STUDIO 2013\PROJECTS\TEXTSTAT_GIT_REPO\TEXTSTATISTICS\TEXTSTAT.CPP
C:\USERS\RIAD\DOCUMENTS\VISUAL STUDIO 2013\PROJECTS\TEXTSTAT_GIT_REPO\TEXTSTATISTICS\DEBUG\VC120.PDB
